[
    {
        "Country": {
          "Name": "France",
          "ISOCode": "FR",
          "ISONumeric": "250"
        },
        "Ambulance": {
          "All": [
            "15"
          ]
        },
        "Fire": {
          "All": [
            "18"
          ]
        },
        "Police": {
          "All": [
            "17"
          ]
        },
        "Covid": {
          "All": [
            "0800130000"
          ]
        },
        "Member_112": true,
        "LocalOnly": false,
        "Notes": ""
      },
      {
        "Country": {
          "Name": "Tunisia",
          "ISOCode": "TN",
          "ISONumeric": "788"
        },
        "Ambulance": {
          "All": [
            "190"
          ]
        },
        "Fire": {
          "All": [
            "198"
          ]
        },
        "Police": {
          "All": [
            "197"
          ]
        },
        "Covid": {
          "All": [
            "80101919"
          ]
        },
        "Member_112": false,
        "LocalOnly": false,
        "Notes": ""
      },
      {
        "Country": {
          "Name": "Madagascar",
          "ISOCode": "MG",
          "ISONumeric": "450"
        },
        "Ambulance": {
          "All": [
            "0202220040"
          ]
        },
        "Fire": {
          "All": [
            "118"
          ]
        },
        "Police": {
          "All": [
            "117"
          ]
        },
        "Covid": {
          "All": [
            "913"
          ]
        },
        "Member_112": false,
        "LocalOnly": true,
        "Notes": false
      },
      {
        "Country": {
          "Name": "Switzerland",
          "ISOCode": "CH",
          "ISONumeric": "756"
        },
        "Ambulance": {
          "All": [
            "144"
          ]
        },
        "Fire": {
          "All": [
            "118"
          ]
        },
        "Police": {
          "All": [
            "117"
          ]
        },
        "Covid": {
          "All": [
            "0800 909 400",
            "0800 316 800"
          ]
        },
        "Member_112": true,
        "LocalOnly": false,
        "Notes": ""
      }
]